[
    {
        "email":"lifan@mail.com",
        "nama":"lifan",
        "kota":"Semarang",
        "alamat":"Kabupaten Semarang",
        "no_hp":"081212341234",
        "login_type":"basic",
        "profile_picture":"https://res.cloudinary.com/syafiq/image/upload/v1657114864/second-hand-assets/profile/seed-data/users1_n2m8sf.jpg"
    },
    {
        "email":"syafiq@mail.com",
        "nama":"syafiq",
        "kota":"Jakarta",
        "alamat":"Jakarta Timur",
        "no_hp":"081212341234",
        "login_type":"basic",
        "profile_picture":"https://res.cloudinary.com/syafiq/image/upload/v1657114790/second-hand-assets/profile/seed-data/users2_rafitf.jpg"
    },
    {
        "email":"teguh@mail.com",
        "nama":"teguh",
        "kota":"Surabaya",
        "alamat":"Kabupaten Surabaya",
        "no_hp":"081212341234",
        "login_type":"basic",
        "profile_picture":"https://res.cloudinary.com/syafiq/image/upload/v1657114944/second-hand-assets/profile/seed-data/users3_seyxk9.jpg"
    },
    {
        "email":"brian@mail.com",
        "nama":"brian",
        "kota":"Semarang",
        "alamat":"Kabupaten Semarang",
        "no_hp":"081212341234",
        "login_type":"basic",
        "profile_picture":"https://res.cloudinary.com/syafiq/image/upload/v1657114790/second-hand-assets/profile/seed-data/users4_oon1zd.jpg"
    },
    {
        "email":"alif@mail.com",
        "nama":"alif",
        "kota":"Jakarta",
        "alamat":"Jakarta Timur",
        "no_hp":"081212341234",
        "login_type":"basic",
        "profile_picture":"https://res.cloudinary.com/syafiq/image/upload/v1657114915/second-hand-assets/profile/seed-data/users5_wl1pxa.png"
    },
    {
        "email":"farras@mail.com",
        "nama":"farras",
        "kota":"Yogyakarta",
        "alamat":"Kabupaten Yogyakarta",
        "no_hp":"081212341234",
        "login_type":"basic",
        "profile_picture":"https://res.cloudinary.com/syafiq/image/upload/v1657115432/second-hand-assets/profile/seed-data/users6_pggox0.jpg"
    }
]